{
  "_comment": "Build with `packer build -var-file=centos8.json centos.json`",
  "vm_name": "centos8",
  "cpus": "2",
  "disk_size": "65536",
  "http_directory": "kickstart/centos8",
  "iso_checksum": "c87a2d81d67bbaeaf646aea5bedd70990078ec252fc52f5a7d65ff609871e255",
  "iso_checksum_type": "sha256",
  "iso_name": "CentOS-8.2.2004-x86_64-dvd1.iso",
  "iso_url": "https://mirrors.edge.kernel.org/centos/8.2.2004/isos/x86_64/CentOS-8.2.2004-x86_64-dvd1.iso",
  "memory": "4096",
  "parallels_guest_os_type": "centos8"
}