{
  "_comment": "Build with `packer build -var-file=centos7.json centos.json`",
  "vm_name": "centos7",
  "cpus": "1",
  "disk_size": "65536",
  "http_directory": "kickstart/centos7",
  "iso_checksum": "087a5743dc6fd6706d9b961b8147423ddc029451b938364c760d75440eb7be14",
  "iso_checksum_type": "sha256",
  "iso_name": "CentOS-7-x86_64-DVD-2003.iso",
  "iso_url": "https://mirrors.edge.kernel.org/centos/7.8.2003/isos/x86_64/CentOS-7-x86_64-DVD-2003.iso",
  "memory": "512",
  "parallels_guest_os_type": "centos7"
}
